[{"id":1,"fecha":"12/2/2018","importe":50,"latitud":30.297685,"longitud":111.302191},
{"id":2,"fecha":"10/10/2018","importe":83,"latitud":-7.2635671,"longitud":112.7345789},
{"id":3,"fecha":"4/17/2019","importe":75,"latitud":10.7900517,"longitud":106.6281901},
{"id":4,"fecha":"3/20/2019","importe":80,"latitud":45.4352011,"longitud":20.4744696},
{"id":5,"fecha":"7/29/2018","importe":29,"latitud":-32.7208452,"longitud":-60.7283624},
{"id":6,"fecha":"5/14/2018","importe":2,"latitud":43.8384389,"longitud":126.6028353},
{"id":7,"fecha":"8/10/2018","importe":86,"latitud":47.9962116,"longitud":-4.1020654},
{"id":8,"fecha":"1/27/2019","importe":78,"latitud":-6.2256842,"longitud":106.6438673},
{"id":9,"fecha":"3/22/2019","importe":50,"latitud":-6.9445784,"longitud":107.5179721},
{"id":10,"fecha":"8/2/2018","importe":68,"latitud":61.3034539,"longitud":23.9771623},
{"id":11,"fecha":"12/24/2018","importe":96,"latitud":-0.3915604,"longitud":102.2862694},
{"id":12,"fecha":"7/16/2018","importe":38,"latitud":21.918203,"longitud":110.853299},
{"id":13,"fecha":"1/3/2019","importe":95,"latitud":10.8476607,"longitud":4.0963821},
{"id":14,"fecha":"12/3/2018","importe":53,"latitud":9.5608923,"longitud":-73.3384471},
{"id":15,"fecha":"1/4/2019","importe":8,"latitud":"14.63752","longitud":"105.78842"},
{"id":16,"fecha":"6/9/2018","importe":38,"latitud":"-6.7657","longitud":"111.6511"},
{"id":17,"fecha":"2/18/2019","importe":66,"latitud":57.6734233,"longitud":14.9774312},
{"id":18,"fecha":"2/14/2019","importe":73,"latitud":36.1473783,"longitud":136.1682227},
{"id":19,"fecha":"9/26/2018","importe":39,"latitud":37.365238,"longitud":120.44763},
{"id":20,"fecha":"5/8/2019","importe":90,"latitud":-11.9019296,"longitud":-76.6658165},
{"id":21,"fecha":"7/28/2018","importe":66,"latitud":40.5982816,"longitud":-8.643537},
{"id":22,"fecha":"4/27/2019","importe":40,"latitud":5.472709,"longitud":-74.667984},
{"id":23,"fecha":"3/31/2019","importe":23,"latitud":49.5458457,"longitud":19.0802389},
{"id":24,"fecha":"9/28/2018","importe":69,"latitud":28.650072,"longitud":121.261886},
{"id":25,"fecha":"3/30/2019","importe":10,"latitud":38.7204364,"longitud":-9.425542},
{"id":26,"fecha":"12/20/2018","importe":70,"latitud":12.2570417,"longitud":109.04532},
{"id":27,"fecha":"10/26/2018","importe":90,"latitud":26.695419,"longitud":101.841707},
{"id":28,"fecha":"12/22/2018","importe":28,"latitud":42.1088311,"longitud":21.553379},
{"id":29,"fecha":"2/26/2019","importe":72,"latitud":23.0706415,"longitud":112.4852219},
{"id":30,"fecha":"7/7/2018","importe":63,"latitud":38.7508367,"longitud":-9.2843236},
{"id":31,"fecha":"4/12/2019","importe":41,"latitud":13.5460383,"longitud":-14.9717426},
{"id":32,"fecha":"9/30/2018","importe":14,"latitud":"-7.0395","longitud":"113.69823"},
{"id":33,"fecha":"9/16/2018","importe":57,"latitud":31.3115396,"longitud":120.6947551},
{"id":34,"fecha":"1/3/2019","importe":74,"latitud":-22.9657374,"longitud":-42.0279869},
{"id":35,"fecha":"9/13/2018","importe":65,"latitud":47.4997688,"longitud":19.0731949},
{"id":36,"fecha":"11/2/2018","importe":57,"latitud":41.0423985,"longitud":21.3607894},
{"id":37,"fecha":"5/9/2018","importe":76,"latitud":30.41,"longitud":19.57},
{"id":38,"fecha":"1/31/2019","importe":75,"latitud":-7.7519029,"longitud":110.7077766},
{"id":39,"fecha":"6/17/2018","importe":67,"latitud":42.71068,"longitud":26.9786398},
{"id":40,"fecha":"10/20/2018","importe":13,"latitud":-10.8588218,"longitud":123.006322},
{"id":41,"fecha":"2/9/2019","importe":12,"latitud":52.2183563,"longitud":35.2154784},
{"id":42,"fecha":"9/26/2018","importe":13,"latitud":49.8799472,"longitud":20.6937448},
{"id":43,"fecha":"6/18/2018","importe":30,"latitud":34.687701,"longitud":133.5775129},
{"id":44,"fecha":"11/1/2018","importe":86,"latitud":17.9567646,"longitud":-102.1943485},
{"id":45,"fecha":"1/15/2019","importe":4,"latitud":35.0160601,"longitud":126.7107572},
{"id":46,"fecha":"8/9/2018","importe":98,"latitud":43.6746011,"longitud":3.9826826},
{"id":47,"fecha":"12/11/2018","importe":27,"latitud":48.0545898,"longitud":24.2128943},
{"id":48,"fecha":"7/9/2018","importe":19,"latitud":41.0938736,"longitud":141.3941151},
{"id":49,"fecha":"11/23/2018","importe":20,"latitud":51.8253953,"longitud":20.8092134},
{"id":50,"fecha":"8/17/2018","importe":32,"latitud":-14.226324,"longitud":-46.4393054},
{"id":51,"fecha":"3/1/2019","importe":98,"latitud":-5.1782884,"longitud":-80.6548882},
{"id":52,"fecha":"6/16/2018","importe":29,"latitud":52.7572749,"longitud":78.2041704},
{"id":53,"fecha":"11/4/2018","importe":59,"latitud":13.5712781,"longitud":-15.3262905},
{"id":54,"fecha":"11/9/2018","importe":48,"latitud":-2.9760007,"longitud":118.9295737},
{"id":55,"fecha":"2/7/2019","importe":11,"latitud":47.4494702,"longitud":-122.307217},
{"id":56,"fecha":"5/12/2018","importe":100,"latitud":-19.333333,"longitud":-65},
{"id":57,"fecha":"1/19/2019","importe":49,"latitud":-20.0791909,"longitud":30.8384093},
{"id":58,"fecha":"4/2/2019","importe":87,"latitud":"-9.8543","longitud":"124.2531"},
{"id":59,"fecha":"4/21/2019","importe":90,"latitud":47.3892142,"longitud":0.6942885},
{"id":60,"fecha":"11/20/2018","importe":85,"latitud":18.1224925,"longitud":-94.4632404},
{"id":61,"fecha":"5/31/2018","importe":91,"latitud":22.9246742,"longitud":96.5063095},
{"id":62,"fecha":"8/18/2018","importe":20,"latitud":39.3552067,"longitud":21.538589},
{"id":63,"fecha":"1/14/2019","importe":26,"latitud":-7.5085719,"longitud":-35.3126181},
{"id":64,"fecha":"12/29/2018","importe":99,"latitud":49.0525513,"longitud":17.5271323},
{"id":65,"fecha":"4/5/2019","importe":19,"latitud":62.1331515,"longitud":22.55812},
{"id":66,"fecha":"12/7/2018","importe":61,"latitud":17.1179264,"longitud":121.583097},
{"id":67,"fecha":"12/5/2018","importe":6,"latitud":31.471686,"longitud":119.934764},
{"id":68,"fecha":"1/30/2019","importe":89,"latitud":12.4035699,"longitud":124.7689819},
{"id":69,"fecha":"11/11/2018","importe":42,"latitud":37.070834,"longitud":114.504677},
{"id":70,"fecha":"1/10/2019","importe":3,"latitud":"31.17959","longitud":"71.20946"},
{"id":71,"fecha":"4/24/2019","importe":75,"latitud":-6.3007596,"longitud":106.8329412},
{"id":72,"fecha":"6/3/2018","importe":40,"latitud":32.061895,"longitud":102.990108},
{"id":73,"fecha":"9/12/2018","importe":19,"latitud":7.6622793,"longitud":-80.5632884},
{"id":74,"fecha":"8/27/2018","importe":74,"latitud":38.7280454,"longitud":-9.3225944},
{"id":75,"fecha":"11/17/2018","importe":52,"latitud":6.176967,"longitud":-75.341462},
{"id":76,"fecha":"8/19/2018","importe":68,"latitud":52.56166,"longitud":17.82264},
{"id":77,"fecha":"6/11/2018","importe":82,"latitud":-5.0039977,"longitud":-79.0878065},
{"id":78,"fecha":"4/3/2019","importe":75,"latitud":-40.3313422,"longitud":-72.9485366},
{"id":79,"fecha":"1/11/2019","importe":45,"latitud":-8.4334199,"longitud":123.3682521},
{"id":80,"fecha":"7/31/2018","importe":79,"latitud":12.5794519,"longitud":3.8938528},
{"id":81,"fecha":"8/7/2018","importe":21,"latitud":37.026945,"longitud":111.916711},
{"id":82,"fecha":"4/2/2019","importe":86,"latitud":39.765701,"longitud":118.412764},
{"id":83,"fecha":"5/3/2019","importe":5,"latitud":-7.2452522,"longitud":-79.4760133},
{"id":84,"fecha":"5/2/2019","importe":30,"latitud":41.1544623,"longitud":-7.9159974},
{"id":85,"fecha":"5/14/2018","importe":28,"latitud":"55.72565","longitud":"37.1635"},
{"id":86,"fecha":"1/5/2019","importe":75,"latitud":"53.9865","longitud":"27.7982"},
{"id":87,"fecha":"3/2/2019","importe":43,"latitud":52.6446193,"longitud":19.0339855},
{"id":88,"fecha":"3/20/2019","importe":12,"latitud":"39.66667","longitud":"22.38333"},
{"id":89,"fecha":"11/26/2018","importe":36,"latitud":58.3906739,"longitud":13.5695991},
{"id":90,"fecha":"5/1/2019","importe":13,"latitud":-20.2081037,"longitud":57.408999},
{"id":91,"fecha":"9/12/2018","importe":1,"latitud":37.768027,"longitud":117.087268},
{"id":92,"fecha":"8/14/2018","importe":2,"latitud":33.9216582,"longitud":-84.3772367},
{"id":93,"fecha":"11/20/2018","importe":22,"latitud":25.3148115,"longitud":55.958135},
{"id":94,"fecha":"11/13/2018","importe":78,"latitud":13.541918,"longitud":107.763621},
{"id":95,"fecha":"7/13/2018","importe":42,"latitud":13.5027167,"longitud":144.8016402},
{"id":96,"fecha":"8/24/2018","importe":93,"latitud":-6.9861815,"longitud":107.2930419},
{"id":97,"fecha":"9/12/2018","importe":68,"latitud":45.295075,"longitud":130.969333},
{"id":98,"fecha":"6/6/2018","importe":82,"latitud":-22.4836725,"longitud":-42.2015431},
{"id":99,"fecha":"3/4/2019","importe":88,"latitud":28.01082,"longitud":120.663064},
{"id":100,"fecha":"4/11/2019","importe":77,"latitud":41.509666,"longitud":-7.9858152}]
